{
	"type" : "rat::mat::nistconductivity",
	"fittype" : "nistconductivity",
	"datatype" : "Thermal Conductivity",
	"material" : "Copper OFHC RRR300",
	"source" : "NIST",
	"specification" : "UNS C10100/C10200",
	"a" : 1.357,
	"b" : 0.3981,
	"c" : 2.669,
	"d" : -0.1346,
	"e" : -0.6683,
	"f" : 0.01342,
	"g" : 0.05773,
	"h" : 0.0002147,
	"i" : 0,
	"lower_temperature" : 4,
	"upper_temperature" : 300
}