{
	"type" : "rat::mat::cudicopper",
	"fittype" : "cudicopper",
	"datatype" : "Electrical Resistivity",
	"material" : "Copper OFHC RRR150",
	"source" : "CUDI Manual",
	"C0" : 1.7,
	"C1" : 2.33e9,
	"C2" : 9.57e5,
	"C3" : 163,
	"RRR" : 150,
	"lower_temperature" : 4,
	"upper_temperature" : 300
}
