{
	"type" : "rat::mat::baseconductor",
	"name" : "Inconel 718",
	"is_public" : true,
	"jc_fit" : null,
	"rho_fit" : null,
	"k_fit" : "../../fits/k/Inconel718_NIST.json",
	"cp_fit" : null,
	"d_fit" : null
}