{
	"type" : "rat::mat::wflfit",
	"material" : "Stainless316",
	"property" : "Thermal Conductivity",
	"source" : "NIST",
	"is_public" : true,
	"specification" : "UNS C31600",
	"krho_fit" : "../k/Stainless316_NIST.json"
}

