{
	"type" : "rat::mat::nist8sumfit",
	"material" : "Aluminum 5083-O",
	"property" : "Specific Heat",
	"source" : "NIST",
	"is_public" : true,
	"specification" : "UNS A95083",
	"a" : 46.6467,
	"b" : -314.292,
	"c" : 866.662,
	"d" : -1298.3,
	"e" : 1162.27,
	"f" : -637.795,
	"g" : 210.351,
	"h" : -38.3094,
	"i" : 2.96344,
	"t1" : 4,
	"t2" : 300
}