{
	"type" : "rat::mat::nist8sumfit",
	"material" : "G10CR",
	"property" : "Specific Heat",
	"source" : "NIST",
	"is_public" : true,
	"link" : "https://trc.nist.gov/cryogenics/materials/G-10%20CR%20Fiberglass%20Epoxy/G10CRFiberglassEpoxy_rev.htm",
	"a" : -2.4083,
	"b" : 7.6006,
	"c" : -8.2982,
	"d" : 7.3301,
	"e" : -4.2386,
	"f" : 1.4294,
	"g" : -0.24396,
	"h" : 0.015236,
	"i" : 0,
	"t1" : 4,
	"t2" : 300
}