{
	"type" : "rat::mat::baseconductor",
	"name" : "Fiberglass Epoxy G10",
	"is_public" : true,
	"k_fit" : "../../fits/k/G10CR_WarpDir_NIST.json",
	"cp_fit" : "../../fits/cp/G10CR_NIST.json",
	"d_fit" : "../../fits/d/G10CR.json"
}