{
	"type" : "rat::mat::htscore",
	"name" : "Shanghai HTS Core CERN",
	"is_public" : true,
	"width" : 10e-3,
	"thickness" : 60e-6,
	"tsubstr" : 50e-6,
	"tsc" : 2e-6,
	"sc" : "../superconductors/REBCO_Shanghai_CERN_isotropic.json",
	"substr" : "../stainless/Stainless316.json"
}