{
	"type" : "rat::mat::nist8sumfit",
	"material" : "Stainless316",
	"property" : "Thermal Conductivity",
	"source" : "NIST",
	"is_public" : true,
	"specification" : "UNS C30400",
	"a" : -1.4087,
	"b" : 1.3982,
	"c" : 0.2543,
	"d" : -0.6260,
	"e" : 0.2334,
	"f" : 0.4256,
	"g" : -0.4658,
	"h" : 0.1650,
	"i" : -0.0199,
	"t1" : 4,
	"t2" : 300
}