{
	"type" : "rat::mat::htstape",
	"name" : "Shanghai HTS Tape CERN",
	"is_public" : true,
	"width" : 10.02e-3,
	"thickness" : 86e-6,
	"core" : "../htscore/Shanghai_CERN.json",
	"stab" : "../metals/CopperOFHC_RRR050.json"
}